<svg width="490" height="479" viewBox="0 0 490 479" fill="none" xmlns="http://www.w3.org/2000/svg">
<g clip-path="url(#clip0)">
<path d="M481.044 371.5C481.044 364.7 475.544 359.2 468.744 359.2H50.044L123.644 285.6C128.444 280.8 128.444 273.1 123.644 268.3C118.844 263.5 111.144 263.5 106.344 268.3L11.844 362.8C7.04402 367.6 7.04402 375.3 11.844 380.1L106.344 474.6C108.744 477 111.844 478.2 115.044 478.2C118.244 478.2 121.344 477 123.744 474.6C128.544 469.8 128.544 462.1 123.744 457.3L50.144 383.7H468.944C475.544 383.7 481.044 378.3 481.044 371.5Z" fill="white"/>
<path d="M477.444 87L382.944 -7.4C378.144 -12.2 370.444 -12.2 365.644 -7.4C360.844 -2.6 360.844 5.1 365.644 9.9L439.244 83.5H20.444C13.644 83.5 8.14401 89 8.14401 95.8C8.14401 102.6 13.644 108.1 20.444 108.1H439.244L365.644 181.5C360.844 186.3 360.844 194 365.644 198.8C368.044 201.2 371.144 202.4 374.344 202.4C377.544 202.4 380.644 201.2 383.044 198.8L477.544 104.3C482.244 99.6 482.244 91.8 477.444 87Z" fill="white"/>
</g>
<defs>
<clipPath id="clip0">
<rect width="489.2" height="489.2" fill="white" transform="translate(0 -11)"/>
</clipPath>
</defs>
</svg>
